<svg width="1440" height="1597" viewBox="0 0 1440 1597" fill="none" xmlns="http://www.w3.org/2000/svg">
<g filter="url(#filter0_f_3963_23685)">
<path fill-rule="evenodd" clip-rule="evenodd" d="M850.455 638.303C816.586 674.297 799.629 758.091 744.635 732.586C687.685 706.173 695.822 614.458 666.255 552.874C648.29 515.454 618.363 486.047 607.73 447.421C590.22 383.812 548.463 299.023 587.377 266.33C625.921 233.947 694.891 303.388 751.678 326.482C801.472 346.732 859.146 342.889 894.695 391.309C930.515 440.097 924.979 500.66 916.071 550.392C908.615 592.015 876.16 610.985 850.455 638.303Z" fill="#9570F4" fill-opacity="0.35"/>
</g>
<g filter="url(#filter1_f_3963_23685)">
<path fill-rule="evenodd" clip-rule="evenodd" d="M573.905 1036.16C636.009 1059.45 738.024 1049.34 748.343 1114.94C759.028 1182.87 654.539 1204.77 608.467 1255.88C580.473 1286.93 569.346 1327.77 535.009 1351.6C478.462 1390.85 415.754 1462.31 353.739 1432.68C292.313 1403.34 319.759 1308.68 305.606 1242.01C293.197 1183.56 249.389 1124.89 277.151 1071.92C305.124 1018.54 374.235 1004.25 433.986 997.055C483.995 991.029 526.77 1018.48 573.905 1036.16Z" fill="#9570F4" fill-opacity="0.24"/>
</g>
<g filter="url(#filter2_f_3963_23685)">
<path d="M1205.17 384.023C1327.22 421.171 1412.08 497.544 1394.71 554.606C1377.34 611.668 984.367 814.651 862.316 777.503C740.265 740.355 977.331 610.464 994.699 553.402C1012.07 496.34 1083.11 346.875 1205.17 384.023Z" fill="#977BDE" fill-opacity="0.36"/>
</g>
<g filter="url(#filter3_f_3963_23685)">
<path d="M494 736.076C196.5 833.576 262.878 995.576 111 995.576C-40.8783 995.576 -46 938.954 -46 787.076C-46 635.198 77.1217 512.076 229 512.076C380.878 512.076 816.5 421.576 494 736.076Z" fill="#5519D2" fill-opacity="0.49"/>
</g>
<g filter="url(#filter4_f_3963_23685)">
<path d="M1190.95 1365.06C985.901 1189.79 831.783 1317.84 781.244 1204.28C730.704 1090.71 790.587 1059.47 955.784 985.956C1120.98 912.441 1295.87 944.91 1346.41 1058.48C1396.95 1172.04 1640.34 1453.98 1190.95 1365.06Z" fill="#5519D2" fill-opacity="0.49"/>
</g>
<defs>
<filter id="filter0_f_3963_23685" x="371.303" y="57.8734" width="751.409" height="879.464" filterUnits="userSpaceOnUse" color-interpolation-filters="sRGB">
<feFlood flood-opacity="0" result="BackgroundImageFix"/>
<feBlend mode="normal" in="SourceGraphic" in2="BackgroundImageFix" result="shape"/>
<feGaussianBlur stdDeviation="100" result="effect1_foregroundBlur_3963_23685"/>
</filter>
<filter id="filter1_f_3963_23685" x="68.0996" y="796.207" width="881.005" height="843.485" filterUnits="userSpaceOnUse" color-interpolation-filters="sRGB">
<feFlood flood-opacity="0" result="BackgroundImageFix"/>
<feBlend mode="normal" in="SourceGraphic" in2="BackgroundImageFix" result="shape"/>
<feGaussianBlur stdDeviation="100" result="effect1_foregroundBlur_3963_23685"/>
</filter>
<filter id="filter2_f_3963_23685" x="527.542" y="78.1653" width="1169.42" height="1003.85" filterUnits="userSpaceOnUse" color-interpolation-filters="sRGB">
<feFlood flood-opacity="0" result="BackgroundImageFix"/>
<feBlend mode="normal" in="SourceGraphic" in2="BackgroundImageFix" result="shape"/>
<feGaussianBlur stdDeviation="150" result="effect1_foregroundBlur_3963_23685"/>
</filter>
<filter id="filter3_f_3963_23685" x="-546" y="0" width="1656.12" height="1495.58" filterUnits="userSpaceOnUse" color-interpolation-filters="sRGB">
<feFlood flood-opacity="0" result="BackgroundImageFix"/>
<feBlend mode="normal" in="SourceGraphic" in2="BackgroundImageFix" result="shape"/>
<feGaussianBlur stdDeviation="250" result="effect1_foregroundBlur_3963_23685"/>
</filter>
<filter id="filter4_f_3963_23685" x="263.833" y="446.604" width="1693.7" height="1435.52" filterUnits="userSpaceOnUse" color-interpolation-filters="sRGB">
<feFlood flood-opacity="0" result="BackgroundImageFix"/>
<feBlend mode="normal" in="SourceGraphic" in2="BackgroundImageFix" result="shape"/>
<feGaussianBlur stdDeviation="250" result="effect1_foregroundBlur_3963_23685"/>
</filter>
</defs>
</svg>
