<svg width="70" height="70" viewBox="0 0 70 70" fill="none" xmlns="http://www.w3.org/2000/svg">
<rect x="18" y="43" width="6" height="16" fill="white"/>
<path d="M4.88281 42.5522H24.0493V58.9807H4.88281" stroke="black" stroke-width="1.2963" stroke-linecap="round"/>
<path d="M17.6602 42.5522V58.9807" stroke="black" stroke-width="1.2963"/>
<path d="M24.0469 47.1162L30.4357 37.9893H44.1261L47.7768 42.5527" stroke="black" stroke-width="1.2963"/>
<path d="M23.9753 53.7731C23.6195 53.8126 23.3632 54.1331 23.4027 54.4889C23.4422 54.8446 23.7627 55.101 24.1185 55.0615L23.9753 53.7731ZM50.5149 42.5523V43.2005H50.6572L50.7865 43.1408L50.5149 42.5523ZM46.8641 42.5523V41.9042H46.7843L46.7069 41.9235L46.8641 42.5523ZM35.7546 44.6616C35.4074 44.7484 35.1962 45.1003 35.283 45.4476C35.3699 45.7949 35.7218 46.006 36.069 45.9192L35.7546 44.6616ZM62.9835 37.4786L62.6239 38.0179L62.9835 37.4786ZM61.7212 37.3802L61.4496 36.7917L61.7212 37.3802ZM63.8992 40.0187L63.4613 39.5409L63.8992 40.0187ZM54.701 48.4504L55.1389 48.9282L54.701 48.4504ZM47.7704 51.7813L47.6988 51.1371L47.7704 51.7813ZM24.1185 55.0615L47.8419 52.4255L47.6988 51.1371L23.9753 53.7731L24.1185 55.0615ZM49.8065 51.8454L53.806 49.8456L53.2262 48.6862L49.2268 50.6859L49.8065 51.8454ZM55.1389 48.9282L64.3372 40.4965L63.4613 39.5409L54.263 47.9726L55.1389 48.9282ZM64.1019 37.4452L63.343 36.9393L62.6239 38.0179L63.3828 38.5238L64.1019 37.4452ZM61.4496 36.7917L50.2433 41.9638L50.7865 43.1408L61.9928 37.9687L61.4496 36.7917ZM50.5149 41.9042H46.8641V43.2005H50.5149V41.9042ZM46.7069 41.9235L35.7546 44.6616L36.069 45.9192L47.0213 43.1811L46.7069 41.9235ZM63.343 36.9393C62.7804 36.5642 62.0634 36.5084 61.4496 36.7917L61.9928 37.9687C62.1974 37.8742 62.4364 37.8929 62.6239 38.0179L63.343 36.9393ZM64.3372 40.4965C65.2673 39.6439 65.1517 38.1451 64.1019 37.4452L63.3828 38.5238C63.7328 38.7571 63.7713 39.2567 63.4613 39.5409L64.3372 40.4965ZM53.806 49.8456C54.2907 49.6032 54.7394 49.2945 55.1389 48.9282L54.263 47.9726C53.9522 48.2575 53.6033 48.4977 53.2262 48.6862L53.806 49.8456ZM47.8419 52.4255C48.5259 52.3495 49.191 52.1531 49.8065 51.8454L49.2268 50.6859C48.7481 50.9253 48.2308 51.078 47.6988 51.1371L47.8419 52.4255Z" fill="black"/>
<path fill-rule="evenodd" clip-rule="evenodd" d="M44.0074 12.356V9.07397H49.7505V12.3426C50.9072 12.7027 51.968 13.3012 52.9322 14.1387L55.7965 12.4503L58.744 17.2856L55.8655 18.9737C55.9389 19.289 55.994 19.6174 56.031 19.9595C56.0491 20.1669 56.063 20.3742 56.0722 20.581C56.0722 20.6983 56.0722 20.8194 56.0722 20.946C56.0722 21.6389 56.0032 22.3056 55.8655 22.945L58.744 24.6194L55.7965 29.4549L52.9044 27.7663C51.9493 28.5858 50.8983 29.18 49.7505 29.5493V32.8179H44.0074V29.5493C43.3648 29.342 42.7494 29.0627 42.1619 28.7118C41.9874 28.6038 41.8127 28.4914 41.6386 28.3741C41.3723 28.1848 41.1106 27.9824 40.8532 27.7663L37.9475 29.4549L35 24.6194L37.8921 22.9308C37.7544 22.3006 37.6857 21.6389 37.6857 20.946C37.6857 20.2612 37.7544 19.6044 37.8921 18.9737L35 17.2856L37.9475 12.4503L40.8396 14.1387C41.7946 13.3105 42.8504 12.716 44.0074 12.356ZM45.5361 16.8939C44.9761 17.0652 44.4664 17.3489 44.0074 17.745C43.934 17.8077 43.865 17.8705 43.8007 17.9338C43.1489 18.5732 42.7494 19.3207 42.6025 20.1761C42.5566 20.4276 42.5338 20.6846 42.5338 20.946C42.5338 21.0627 42.5383 21.1751 42.5474 21.2831C42.5566 21.4364 42.575 21.5897 42.6025 21.7425C42.6117 21.7873 42.6209 21.8369 42.6301 21.8909C42.7953 22.6656 43.1856 23.3542 43.8007 23.9576C43.865 24.0209 43.934 24.0836 44.0074 24.1464C44.4756 24.5517 44.9897 24.8404 45.5497 25.0111C45.9628 25.1372 46.4038 25.2004 46.872 25.2004C46.9365 25.2004 47.0052 25.2004 47.0787 25.2004C47.4643 25.1824 47.8362 25.1192 48.1942 25.0111C48.7634 24.8404 49.2823 24.5517 49.7505 24.1464C49.8147 24.0836 49.879 24.0209 49.9433 23.9576C50.2095 23.6968 50.4345 23.4175 50.6182 23.1201C50.8844 22.6973 51.0588 22.2335 51.1417 21.7294C51.1873 21.4768 51.2104 21.216 51.2104 20.946C51.2104 20.6753 51.1918 20.4189 51.1554 20.1761C50.9993 19.3207 50.5953 18.5732 49.9433 17.9338C49.879 17.8705 49.8147 17.8126 49.7505 17.7581C49.7413 17.7494 49.7321 17.7406 49.7229 17.7314C49.5669 17.596 49.4105 17.4749 49.2547 17.3664C48.9239 17.1596 48.5798 17.0019 48.2218 16.8939C47.7995 16.7586 47.3496 16.6915 46.872 16.6915C46.3946 16.6915 45.9492 16.7586 45.5361 16.8939Z" fill="#41AE7C"/>
</svg>
