<svg width="18" height="18" viewBox="0 0 18 18" fill="none" xmlns="http://www.w3.org/2000/svg">
<path d="M15.3125 8.49157L8.65588 15.1482L1.99925 8.49157M15.3125 3.50849L8.65588 10.1651L1.99925 3.50849" stroke="#41AE7C"/>
</svg>
