<svg width="18" height="18" viewBox="0 0 18 18" fill="none" xmlns="http://www.w3.org/2000/svg">
<path d="M7.76612 2.25C8.34347 1.25 9.78685 1.25 10.3642 2.25L16.4264 12.75C17.0037 13.75 16.282 15 15.1273 15H3.00299C1.84828 15 1.1266 13.75 1.70395 12.75L7.76612 2.25Z" stroke="#E49A2A"/>
<path d="M8.56641 11.0371L8.56641 4.99913L9.56641 4.99914L9.56641 11.0371L8.56641 11.0371Z" fill="#E49A2A"/>
<path d="M8.56641 13.4434L8.56641 12.4434L9.56641 12.4434L9.56641 13.4434L8.56641 13.4434Z" fill="#E49A2A"/>
</svg>
