<svg width="18" height="18" viewBox="0 0 18 18" fill="none" xmlns="http://www.w3.org/2000/svg">
<path d="M1.77145 12V7.41H2.71645V9.255H4.96645V7.41H5.91145V12H4.96645V10.11H2.71645V12H1.77145ZM7.39715 11.406C6.94715 10.944 6.72215 10.377 6.72215 9.705C6.72215 9.033 6.94715 8.469 7.39715 8.013C7.85315 7.551 8.40815 7.32 9.06215 7.32C9.71615 7.32 10.2681 7.551 10.7181 8.013C11.1741 8.469 11.4021 9.033 11.4021 9.705V10.02H7.66715C7.73915 10.398 7.90415 10.695 8.16215 10.911C8.42015 11.127 8.72015 11.235 9.06215 11.235C9.48215 11.235 9.81815 11.13 10.0701 10.92C10.1841 10.836 10.2831 10.731 10.3671 10.605H11.3571C11.2311 10.899 11.0721 11.148 10.8801 11.352C10.3881 11.844 9.78215 12.09 9.06215 12.09C8.40815 12.09 7.85315 11.862 7.39715 11.406ZM7.71215 9.255H10.4121C10.3581 8.955 10.2141 8.7 9.98015 8.49C9.75215 8.28 9.44615 8.175 9.06215 8.175C8.73815 8.175 8.45015 8.274 8.19815 8.472C7.94615 8.664 7.78415 8.925 7.71215 9.255ZM11.7179 8.265V7.41H15.7229V8.265H14.1929V12H13.2479V8.265H11.7179Z" fill="#41AE7C"/>
</svg>
