<svg width="89" height="89" viewBox="0 0 89 89" fill="none" xmlns="http://www.w3.org/2000/svg">
<path d="M32.4281 11.5923C32.8728 11.233 33.4272 11.0371 33.9989 11.0371H51C52.3807 11.0371 53.5 12.1564 53.5 13.5371V55.8542C53.5 57.2349 52.3807 58.3542 51 58.3542H19.833C18.4523 58.3542 17.333 57.2349 17.333 55.8542V24.9788C17.333 24.2234 17.6745 23.5086 18.2622 23.034L32.4281 11.5923Z" stroke="black"/>
<path d="M24.2662 32.2178H46.5664" stroke="black"/>
<path d="M24.2662 37.1736H46.5664" stroke="black"/>
<path d="M24.2662 42.1292H36.6552" stroke="black"/>
<path d="M17.4526 24.7846H29.5583C31.7674 24.7846 33.5583 22.9937 33.5583 20.7846V11.7761" stroke="black"/>
<ellipse cx="48.4547" cy="55.4548" rx="14.4637" ry="14.4637" transform="rotate(-45 48.4547 55.4548)" fill="url(#paint0_linear_2509_29265)" stroke="black"/>
<ellipse cx="48.4552" cy="55.4541" rx="11.5679" ry="11.5679" transform="rotate(-45 48.4552 55.4541)" fill="#41AE7C"/>
<rect x="59.7446" y="69.5657" width="3.98897" height="13.468" rx="1.5" transform="rotate(-45 59.7446 69.5657)" fill="url(#paint1_linear_2509_29265)" stroke="#010101"/>
<rect width="1.24411" height="3.49228" transform="matrix(0.707107 -0.707106 0.707107 0.707106 57.8932 65.772)" fill="black"/>
<defs>
<linearGradient id="paint0_linear_2509_29265" x1="33.9911" y1="69.9185" x2="52.9948" y2="35.5103" gradientUnits="userSpaceOnUse">
<stop stop-color="#EEEEEE"/>
<stop offset="1" stop-color="#FEFFFF"/>
</linearGradient>
<linearGradient id="paint1_linear_2509_29265" x1="59.0375" y1="84.0337" x2="69.1267" y2="77.7345" gradientUnits="userSpaceOnUse">
<stop stop-color="#EEEEEE"/>
<stop offset="1" stop-color="#FEFFFF"/>
</linearGradient>
</defs>
</svg>
