<svg width="89" height="89" viewBox="0 0 89 89" fill="none" xmlns="http://www.w3.org/2000/svg">
<path d="M34.6107 36.2595C34.6107 35.3492 35.3486 34.6113 36.2589 34.6113H74.1663C75.0766 34.6113 75.8145 35.3492 75.8145 36.2595V62.4167C75.8145 62.9545 75.552 63.4585 75.1115 63.7669L57.8998 75.815V64.9229C57.8998 64.0127 57.1619 63.2748 56.2517 63.2748H36.2589C35.3486 63.2748 34.6107 62.5369 34.6107 61.6266V36.2595Z" fill="white" stroke="black"/>
<path d="M47.7967 21.426C47.7967 20.5157 47.0588 19.7778 46.1485 19.7778H14.8337C13.9234 19.7778 13.1855 20.5157 13.1855 21.426V42.997C13.1855 43.5348 13.448 44.0388 13.8885 44.3472L28.2339 54.3889V45.5033C28.2339 44.593 28.9718 43.8551 29.882 43.8551H46.1485C47.0588 43.8551 47.7967 43.1172 47.7967 42.207V21.426Z" fill="#41AE7C"/>
</svg>
