<svg width="18" height="18" viewBox="0 0 18 18" fill="none" xmlns="http://www.w3.org/2000/svg">
<rect x="2" y="4" width="14" height="12" rx="2" stroke="#7F7F7F"/>
<path d="M2 8H16" stroke="#7F7F7F"/>
<path d="M5.5 6V2" stroke="#7F7F7F" stroke-linecap="round"/>
<path d="M12 6V2" stroke="#7F7F7F" stroke-linecap="round"/>
</svg>
