<svg width="18" height="18" viewBox="0 0 18 18" fill="none" xmlns="http://www.w3.org/2000/svg">
<g clip-path="url(#clip0_5261_408)">
<path d="M12.3337 14L14.242 12.0917L10.1753 8.025L6.84199 11.3583L0.666992 5.175L1.84199 4L6.84199 9L10.1753 5.66667L15.4253 10.9083L17.3337 9V14H12.3337Z" fill="#DD1717"/>
</g>
<defs>
<clipPath id="clip0_5261_408">
<rect width="18" height="18" fill="white"/>
</clipPath>
</defs>
</svg>
