<svg width="450" height="450" viewBox="0 0 450 450" fill="none" xmlns="http://www.w3.org/2000/svg">
<path d="M326.433 93.6001H54.543V259.83H326.433V93.6001Z" fill="white" stroke="#E0E0E0" stroke-miterlimit="10"/>
<path d="M54.543 115.2H326.433" stroke="#E0E0E0" stroke-miterlimit="10"/>
<path d="M73.7131 105.12C73.7131 108 71.3731 110.25 68.5831 110.25C65.7031 110.25 63.4531 107.91 63.4531 105.12C63.4531 102.24 65.7931 99.9903 68.5831 99.9903C71.3731 99.9003 73.7131 102.24 73.7131 105.12Z" fill="#E0E0E0"/>
<path d="M94.7717 105.12C94.7717 108 92.4317 110.25 89.6417 110.25C86.7617 110.25 84.5117 107.91 84.5117 105.12C84.5117 102.24 86.8517 99.9903 89.6417 99.9903C92.4317 99.9003 94.7717 102.24 94.7717 105.12Z" fill="#F0F0F0"/>
<path d="M115.834 105.12C115.834 108 113.494 110.25 110.704 110.25C107.824 110.25 105.574 107.91 105.574 105.12C105.574 102.24 107.914 99.9903 110.704 99.9903C113.494 99.9003 115.834 102.24 115.834 105.12Z" fill="#F5F5F5"/>
<path d="M84.6931 156.78H70.2031V160.74H84.6931V156.78Z" fill="#E6E6E6"/>
<path d="M193.593 156.78H95.2227V160.74H193.593V156.78Z" fill="#E6E6E6"/>
<path d="M230.044 156.78H202.504V160.74H230.044V156.78Z" fill="#E6E6E6"/>
<path d="M293.044 210.24H265.504V214.2H293.044V210.24Z" fill="#E6E6E6"/>
<path d="M283.684 156.78H236.074V160.74H283.684V156.78Z" fill="#E6E6E6"/>
<path d="M99.1814 167.49H84.6914V171.45H99.1814V167.49Z" fill="#E6E6E6"/>
<path d="M173.252 167.49H109.352V171.45H173.252V167.49Z" fill="#E6E6E6"/>
<path d="M258.931 210.24H195.031V214.2H258.931V210.24Z" fill="#E6E6E6"/>
<path d="M154.173 199.62H95.2227V203.58H154.173V199.62Z" fill="#E6E6E6"/>
<path d="M137.252 178.2H109.352V182.16H137.252V178.2Z" fill="#E6E6E6"/>
<path d="M248.853 188.91H220.953V192.87H248.853V188.91Z" fill="#E6E6E6"/>
<path d="M239.492 178.2H145.352V182.16H239.492V178.2Z" fill="#E6E6E6"/>
<path d="M189.363 210.24H95.2227V214.2H189.363V210.24Z" fill="#E6E6E6"/>
<path d="M308.432 167.49H232.922V171.45H308.432V167.49Z" fill="#E6E6E6"/>
<path d="M226.984 167.49H180.094V171.45H226.984V167.49Z" fill="#E6E6E6"/>
<path d="M291.874 178.2H244.984V182.16H291.874V178.2Z" fill="#E6E6E6"/>
<path d="M99.1814 178.2H84.6914V182.16H99.1814V178.2Z" fill="#E6E6E6"/>
<path d="M84.6931 188.91H70.2031V192.87H84.6931V188.91Z" fill="#E6E6E6"/>
<path d="M135.633 188.91H95.2227V192.87H135.633V188.91Z" fill="#E6E6E6"/>
<path d="M149.762 220.95H109.352V224.91H149.762V220.95Z" fill="#E6E6E6"/>
<path d="M266.312 231.66H201.242V235.62H266.312V231.66Z" fill="#E6E6E6"/>
<path d="M219.961 220.95H156.691V224.91H219.961V220.95Z" fill="#E6E6E6"/>
<path d="M193.684 231.66H141.574V235.62H193.684V231.66Z" fill="#E6E6E6"/>
<path d="M308.524 220.95H227.434V224.91H308.524V220.95Z" fill="#E6E6E6"/>
<path d="M134.192 231.66H109.352V235.62H134.192V231.66Z" fill="#E6E6E6"/>
<path d="M230.043 199.62H160.113V203.58H230.043V199.62Z" fill="#E6E6E6"/>
<path d="M294.934 199.62H236.074V203.58H294.934V199.62Z" fill="#E6E6E6"/>
<path d="M214.203 188.91H144.363V192.87H214.203V188.91Z" fill="#E6E6E6"/>
<path d="M84.6931 199.62H70.2031V203.58H84.6931V199.62Z" fill="#E6E6E6"/>
<path d="M84.6931 210.24H70.2031V214.2H84.6931V210.24Z" fill="#E6E6E6"/>
<path d="M99.1814 220.95H84.6914V224.91H99.1814V220.95Z" fill="#E6E6E6"/>
<path d="M99.1814 231.66H84.6914V235.62H99.1814V231.66Z" fill="#E6E6E6"/>
<path d="M71.7414 145.081V143.824L81.8537 138.674V140.684L74.0968 144.421L74.1596 144.295V144.61L74.0968 144.484L81.8537 148.221V150.231L71.7414 145.081ZM91.4655 133.901L86.2837 153.152H84.5879L89.7696 133.901H91.4655ZM81.8537 172.081L71.7414 177.231V175.221L79.4984 171.484L79.4356 171.61V171.295L79.4984 171.421L71.7414 167.684V165.674L81.8537 170.824V172.081Z" fill="#E0E0E0"/>
<path d="M35.9113 242.82H67.6813C71.7313 242.82 75.0613 246.15 75.0613 250.2V263.16V267.66V281.88L67.5913 275.04H35.9113C31.8613 275.04 28.5312 271.71 28.5312 267.66V250.2C28.6213 246.15 31.8613 242.82 35.9113 242.82Z" fill="white" stroke="#EAEAEA" stroke-miterlimit="10"/>
<path d="M59.043 259.47C59.043 261.27 60.483 262.62 62.193 262.62C63.993 262.62 65.343 261.18 65.343 259.47C65.343 257.67 63.903 256.32 62.193 256.32C60.483 256.32 59.043 257.76 59.043 259.47Z" fill="#EAEAEA"/>
<path d="M51.1227 262.62C52.8624 262.62 54.2727 261.21 54.2727 259.47C54.2727 257.73 52.8624 256.32 51.1227 256.32C49.383 256.32 47.9727 257.73 47.9727 259.47C47.9727 261.21 49.383 262.62 51.1227 262.62Z" fill="#EAEAEA"/>
<path d="M40.0523 262.62C41.792 262.62 43.2023 261.21 43.2023 259.47C43.2023 257.73 41.792 256.32 40.0523 256.32C38.3126 256.32 36.9023 257.73 36.9023 259.47C36.9023 261.21 38.3126 262.62 40.0523 262.62Z" fill="#EAEAEA"/>
<path d="M367.291 68.8497C367.291 72.6297 364.411 75.6897 360.721 75.9597H320.581C315.991 75.9597 312.211 72.2697 312.211 67.5897C312.211 63.2697 315.541 59.6697 319.771 59.3097C320.041 51.7497 326.161 45.7197 333.811 45.7197C339.841 45.7197 345.061 49.5897 346.951 54.8997C348.031 54.3597 349.291 53.9997 350.641 53.9997C355.051 53.9997 358.651 57.4197 358.921 61.8297C359.281 61.7397 359.641 61.7397 360.091 61.7397C364.141 61.8297 367.291 64.9797 367.291 68.8497Z" fill="#F0F0F0"/>
<path d="M392.04 257.31H357.48C353.97 257.31 351.18 254.52 351.18 251.01V231.21C351.18 227.7 353.97 224.91 357.48 224.91H392.04C395.55 224.91 398.34 227.7 398.34 231.21V251.01C398.34 254.52 395.55 257.31 392.04 257.31Z" fill="#F0F0F0"/>
<path d="M360.917 241.934V240.826L369.84 236.281V238.054L362.995 241.352L363.051 241.241V241.518L362.995 241.408L369.84 244.705V246.479L360.917 241.934ZM378.322 232.069L373.749 249.056H372.253L376.825 232.069H378.322ZM369.84 265.934L360.917 270.479V268.705L367.762 265.408L367.706 265.518V265.241L367.762 265.352L360.917 262.054V260.281L369.84 264.826V265.934Z" fill="white"/>
<path d="M333.612 200.303V199.276C334.534 199.276 335.178 199.082 335.542 198.696C335.912 198.309 336.098 197.663 336.098 196.757V194.105C336.098 193.343 336.169 192.683 336.313 192.125C336.462 191.567 336.702 191.106 337.034 190.741C337.365 190.377 337.807 190.106 338.36 189.929C338.912 189.753 339.594 189.664 340.406 189.664V191.288C339.765 191.288 339.26 191.388 338.89 191.586C338.525 191.785 338.266 192.095 338.111 192.515C337.962 192.929 337.887 193.459 337.887 194.105V197.42C337.887 197.851 337.829 198.243 337.713 198.596C337.603 198.95 337.396 199.254 337.092 199.508C336.788 199.762 336.354 199.958 335.791 200.096C335.233 200.234 334.507 200.303 333.612 200.303ZM340.406 210.876C339.594 210.876 338.912 210.788 338.36 210.611C337.807 210.434 337.365 210.164 337.034 209.799C336.702 209.434 336.462 208.973 336.313 208.415C336.169 207.857 336.098 207.197 336.098 206.435V203.783C336.098 202.877 335.912 202.231 335.542 201.844C335.178 201.458 334.534 201.264 333.612 201.264V200.237C334.507 200.237 335.233 200.306 335.791 200.444C336.354 200.582 336.788 200.778 337.092 201.032C337.396 201.287 337.603 201.59 337.713 201.944C337.829 202.297 337.887 202.69 337.887 203.121V206.435C337.887 207.081 337.962 207.611 338.111 208.026C338.266 208.44 338.525 208.747 338.89 208.946C339.26 209.15 339.765 209.252 340.406 209.252V210.876ZM333.612 201.264V199.276H335.567V201.264H333.612ZM340.34 228.237V229.264C339.417 229.264 338.771 229.458 338.401 229.844C338.036 230.231 337.854 230.877 337.854 231.783V234.435C337.854 235.197 337.78 235.857 337.63 236.415C337.487 236.973 337.249 237.434 336.918 237.799C336.586 238.164 336.144 238.434 335.592 238.611C335.04 238.788 334.357 238.876 333.545 238.876V237.252C334.186 237.252 334.689 237.15 335.053 236.946C335.424 236.747 335.683 236.44 335.832 236.026C335.987 235.611 336.064 235.081 336.064 234.435V231.121C336.064 230.69 336.12 230.297 336.23 229.944C336.346 229.59 336.556 229.287 336.86 229.032C337.164 228.778 337.595 228.582 338.152 228.444C338.716 228.306 339.445 228.237 340.34 228.237ZM333.545 217.664C334.357 217.664 335.04 217.753 335.592 217.929C336.144 218.106 336.586 218.377 336.918 218.741C337.249 219.106 337.487 219.567 337.63 220.125C337.78 220.683 337.854 221.343 337.854 222.105V224.757C337.854 225.663 338.036 226.309 338.401 226.696C338.771 227.082 339.417 227.276 340.34 227.276V228.303C339.445 228.303 338.716 228.234 338.152 228.096C337.595 227.958 337.164 227.762 336.86 227.508C336.556 227.254 336.346 226.95 336.23 226.596C336.12 226.243 336.064 225.851 336.064 225.42V222.105C336.064 221.459 335.987 220.929 335.832 220.515C335.683 220.095 335.424 219.785 335.053 219.586C334.689 219.388 334.186 219.288 333.545 219.288V217.664ZM340.34 227.276V229.264H338.384V227.276H340.34Z" fill="#E6E6E6"/>
<path d="M65.0477 56.793V55.9863C65.7719 55.9863 66.2772 55.8345 66.5634 55.5309C66.854 55.2273 66.9993 54.7199 66.9993 54.0086V51.9268C66.9993 51.3283 67.0557 50.8101 67.1685 50.372C67.2856 49.934 67.4742 49.5719 67.7344 49.2856C67.9947 48.9994 68.3416 48.7869 68.7753 48.6481C69.209 48.5093 69.7446 48.4399 70.3822 48.4399V49.715C69.8791 49.715 69.4823 49.793 69.1917 49.9492C68.9054 50.1053 68.7016 50.3482 68.5802 50.6778C68.4631 51.0031 68.4045 51.4194 68.4045 51.9268V54.529C68.4045 54.8673 68.359 55.1753 68.2679 55.4528C68.1812 55.7304 68.0185 55.9689 67.78 56.1684C67.5414 56.3679 67.201 56.5219 66.7586 56.6303C66.3206 56.7387 65.7503 56.793 65.0477 56.793ZM70.3822 65.094C69.7446 65.094 69.209 65.0246 68.7753 64.8858C68.3416 64.747 67.9947 64.5345 67.7344 64.2483C67.4742 63.962 67.2856 63.5999 67.1685 63.1619C67.0557 62.7238 66.9993 62.2055 66.9993 61.607V59.5253C66.9993 58.814 66.854 58.3066 66.5634 58.003C66.2772 57.6994 65.7719 57.5476 65.0477 57.5476V56.7409C65.7503 56.7409 66.3206 56.7951 66.7586 56.9036C67.201 57.012 67.5414 57.1659 67.78 57.3654C68.0185 57.5649 68.1812 57.8035 68.2679 58.0811C68.359 58.3586 68.4045 58.6665 68.4045 59.0048V61.607C68.4045 62.1145 68.4631 62.5308 68.5802 62.8561C68.7016 63.1814 68.9054 63.4221 69.1917 63.5782C69.4823 63.7387 69.8791 63.8189 70.3822 63.8189V65.094ZM65.0477 57.5476V55.9863H66.583V57.5476H65.0477ZM70.3301 78.7409V79.5476C69.6059 79.5476 69.0984 79.6994 68.8078 80.003C68.5216 80.3066 68.3785 80.814 68.3785 81.5253V83.607C68.3785 84.2055 68.3199 84.7238 68.2028 85.1619C68.0901 85.5999 67.9036 85.962 67.6434 86.2483C67.3831 86.5345 67.0362 86.747 66.6025 86.8858C66.1688 87.0246 65.6332 87.094 64.9956 87.094V85.8189C65.4987 85.8189 65.8934 85.7387 66.1796 85.5782C66.4702 85.4221 66.674 85.1814 66.7911 84.8561C66.9126 84.5308 66.9733 84.1145 66.9733 83.607V81.0048C66.9733 80.6665 67.0167 80.3586 67.1034 80.0811C67.1945 79.8035 67.3593 79.5649 67.5978 79.3654C67.8364 79.1659 68.1746 79.012 68.6127 78.9036C69.0551 78.7951 69.6275 78.7409 70.3301 78.7409ZM64.9956 70.4399C65.6332 70.4399 66.1688 70.5093 66.6025 70.6481C67.0362 70.7869 67.3831 70.9994 67.6434 71.2856C67.9036 71.5719 68.0901 71.934 68.2028 72.372C68.3199 72.8101 68.3785 73.3283 68.3785 73.9268V76.0086C68.3785 76.7199 68.5216 77.2273 68.8078 77.5309C69.0984 77.8345 69.6059 77.9863 70.3301 77.9863V78.793C69.6275 78.793 69.0551 78.7387 68.6127 78.6303C68.1746 78.5219 67.8364 78.3679 67.5978 78.1684C67.3593 77.9689 67.1945 77.7304 67.1034 77.4528C67.0167 77.1753 66.9733 76.8673 66.9733 76.529V73.9268C66.9733 73.4194 66.9126 73.0031 66.7911 72.6778C66.674 72.3482 66.4702 72.1053 66.1796 71.9492C65.8934 71.793 65.4987 71.715 64.9956 71.715V70.4399ZM70.3301 77.9863V79.5476H68.7948V77.9863H70.3301Z" fill="#E6E6E6"/>
<path d="M218.789 142.74H122.579C118.439 142.74 115.109 139.41 115.109 135.27V65.43C115.109 61.29 118.439 57.96 122.579 57.96H218.789C222.929 57.96 226.259 61.29 226.259 65.43V135.27C226.259 139.41 222.929 142.74 218.789 142.74Z" fill="#4D5A64"/>
<path d="M190.763 77.1549V76.3111L197.556 72.8513V74.2015L192.346 76.7119L192.388 76.6275V76.8385L192.346 76.7541L197.556 79.2645V80.6146L190.763 77.1549ZM204.013 69.6448L200.532 82.5765H199.393L202.874 69.6448H204.013ZM197.556 95.1549L190.763 98.6146V97.2645L195.974 94.7541L195.932 94.8385V94.6275L195.974 94.7119L190.763 92.2015V90.8513L197.556 94.3111V95.1549Z" fill="#FAFAFA"/>
<path d="M148.682 77.4901C157.322 77.4901 165.872 77.4901 174.512 77.4901C175.772 77.4901 177.032 77.4901 178.202 77.4901C179.102 77.4901 179.102 76.1401 178.202 76.1401C169.562 76.1401 161.012 76.1401 152.372 76.1401C151.112 76.1401 149.852 76.1401 148.682 76.1401C147.872 76.1401 147.872 77.4901 148.682 77.4901Z" fill="#FAFAFA"/>
<path d="M125.46 89.1C128.25 89.1 131.13 89.1 133.92 89.1C140.76 89.1 147.51 89.1 154.35 89.1C162.63 89.1 170.91 89.1 179.19 89.1C186.3 89.1 193.41 89.1 200.61 89.1C202.95 89.1 205.29 89.1 207.72 89.1C208.8 89.1 209.97 89.19 211.05 89.1C211.14 89.1 211.14 89.1 211.23 89.1C212.13 89.1 212.13 87.75 211.23 87.75C208.44 87.75 205.56 87.75 202.77 87.75C195.93 87.75 189.18 87.75 182.34 87.75C174.06 87.75 165.78 87.75 157.5 87.75C150.39 87.75 143.28 87.75 136.08 87.75C133.74 87.75 131.4 87.75 128.97 87.75C127.89 87.75 126.72 87.66 125.64 87.75C125.55 87.75 125.55 87.75 125.46 87.75C124.56 87.75 124.56 89.1 125.46 89.1Z" fill="#FAFAFA"/>
<path d="M201.421 102.69C204.301 102.69 207.091 102.69 209.971 102.69C210.331 102.69 210.781 102.69 211.141 102.69C212.041 102.69 212.041 101.34 211.141 101.34C208.261 101.34 205.471 101.34 202.591 101.34C202.231 101.34 201.781 101.34 201.421 101.34C200.521 101.34 200.521 102.69 201.421 102.69Z" fill="#FAFAFA"/>
<path d="M149.761 102.69C154.351 102.69 159.031 102.69 163.621 102.69C171.001 102.69 178.291 102.69 185.671 102.69C187.381 102.69 189.091 102.69 190.801 102.69C191.701 102.69 191.701 101.34 190.801 101.34C186.211 101.34 181.531 101.34 176.941 101.34C169.561 101.34 162.271 101.34 154.891 101.34C153.181 101.34 151.471 101.34 149.761 101.34C148.861 101.34 148.861 102.69 149.761 102.69Z" fill="#FAFAFA"/>
<path d="M125.46 114.03C128.25 114.03 131.13 114.03 133.92 114.03C140.76 114.03 147.51 114.03 154.35 114.03C162.63 114.03 170.91 114.03 179.19 114.03C186.3 114.03 193.41 114.03 200.61 114.03C202.95 114.03 205.29 114.03 207.72 114.03C208.8 114.03 209.97 114.12 211.05 114.03C211.14 114.03 211.14 114.03 211.23 114.03C212.13 114.03 212.13 112.68 211.23 112.68C208.44 112.68 205.56 112.68 202.77 112.68C195.93 112.68 189.18 112.68 182.34 112.68C174.06 112.68 165.78 112.68 157.5 112.68C150.39 112.68 143.28 112.68 136.08 112.68C133.74 112.68 131.4 112.68 128.97 112.68C127.89 112.68 126.72 112.59 125.64 112.68C125.55 112.68 125.55 112.68 125.46 112.68C124.56 112.68 124.56 114.03 125.46 114.03Z" fill="#FAFAFA"/>
<path d="M186.12 126.45C193.41 126.45 200.7 126.45 207.99 126.45C209.07 126.45 210.06 126.45 211.14 126.45C212.04 126.45 212.04 125.1 211.14 125.1C203.85 125.1 196.56 125.1 189.27 125.1C188.19 125.1 187.2 125.1 186.12 125.1C185.22 125.1 185.22 126.45 186.12 126.45Z" fill="#FAFAFA"/>
<path d="M149.761 126.45C158.131 126.45 166.411 126.45 174.781 126.45C175.951 126.45 177.121 126.45 178.291 126.45C179.191 126.45 179.191 125.1 178.291 125.1C169.921 125.1 161.641 125.1 153.271 125.1C152.101 125.1 150.931 125.1 149.761 125.1C148.861 125.1 148.861 126.45 149.761 126.45Z" fill="#FAFAFA"/>
<path d="M227.429 191.61H162.629V228.06H227.429V191.61Z" fill="#FAFAFA" stroke="#41AE7C" stroke-miterlimit="10"/>
<path d="M168.748 194.94C168.748 195.84 168.028 196.56 167.128 196.56C166.228 196.56 165.508 195.84 165.508 194.94C165.508 194.04 166.228 193.32 167.128 193.32C168.028 193.32 168.748 194.04 168.748 194.94Z" fill="#41AE7C"/>
<path d="M175.498 194.94C175.498 195.84 174.778 196.56 173.878 196.56C172.978 196.56 172.258 195.84 172.258 194.94C172.258 194.04 172.978 193.32 173.878 193.32C174.778 193.32 175.498 194.04 175.498 194.94Z" fill="#41AE7C"/>
<path d="M182.248 194.94C182.248 195.84 181.528 196.56 180.628 196.56C179.728 196.56 179.008 195.84 179.008 194.94C179.008 194.04 179.728 193.32 180.628 193.32C181.528 193.32 182.248 194.04 182.248 194.94Z" fill="#41AE7C"/>
<path d="M169.383 219.742V205.742H171.183V211.842H178.683V205.742H180.483V219.742H178.683V213.542H171.183V219.742H169.383Z" fill="#41AE7C"/>
<path d="M182.28 207.442V205.742H193.68V207.442H188.88V219.742H187.08V207.442H182.28Z" fill="#41AE7C"/>
<path d="M195.477 219.742V205.742H198.377L202.577 214.742H203.477L207.677 205.742H210.577V219.742H208.777V207.742L208.797 207.542H208.757L204.677 216.342H201.377L197.297 207.542H197.257L197.277 207.742V219.742H195.477Z" fill="#41AE7C"/>
<path d="M213.777 219.742V205.742H215.577V218.042H222.877V219.742H213.777Z" fill="#41AE7C"/>
<path d="M162.539 198.18H227.429" stroke="#41AE7C" stroke-miterlimit="10"/>
<path d="M125.55 71.46H81.0898V101.43H125.55V71.46Z" fill="#FAFAFA" stroke="#41AE7C" stroke-miterlimit="10"/>
<path d="M84.8695 75.5999C85.6151 75.5999 86.2195 74.9955 86.2195 74.2499C86.2195 73.5043 85.6151 72.8999 84.8695 72.8999C84.1239 72.8999 83.5195 73.5043 83.5195 74.2499C83.5195 74.9955 84.1239 75.5999 84.8695 75.5999Z" fill="#41AE7C"/>
<path d="M91.7078 74.2502C91.7078 74.9702 91.0778 75.6002 90.3578 75.6002C89.6378 75.6002 89.0078 74.9702 89.0078 74.2502C89.0078 73.5302 89.6378 72.9002 90.3578 72.9002C91.1678 72.8102 91.7078 73.4402 91.7078 74.2502Z" fill="#41AE7C"/>
<path d="M97.2898 74.2502C97.2898 74.9702 96.6598 75.6002 95.9398 75.6002C95.2198 75.6002 94.5898 74.9702 94.5898 74.2502C94.5898 73.5302 95.2198 72.9002 95.9398 72.9002C96.6598 72.8102 97.2898 73.4402 97.2898 74.2502Z" fill="#41AE7C"/>
<path d="M87.043 95.1842V83.2842H92.058C93.3953 83.2842 94.4663 83.6525 95.271 84.3892C96.0756 85.1258 96.478 86.0608 96.478 87.1942C96.478 88.3275 96.0756 89.2625 95.271 89.9992C94.4663 90.7358 93.3953 91.1042 92.058 91.1042H88.573V95.1842H87.043ZM88.573 89.6592H92.058C92.976 89.6592 93.6843 89.4382 94.183 88.9962C94.693 88.5428 94.948 87.9422 94.948 87.1942C94.948 86.4462 94.693 85.8512 94.183 85.4092C93.6843 84.9558 92.976 84.7292 92.058 84.7292H88.573V89.6592Z" fill="#41AE7C"/>
<path d="M98.4316 95.1842V83.2842H99.9616V88.4692H106.337V83.2842H107.867V95.1842H106.337V89.9142H99.9616V95.1842H98.4316Z" fill="#41AE7C"/>
<path d="M110.584 95.1842V83.2842H115.599C116.936 83.2842 118.007 83.6525 118.812 84.3892C119.617 85.1258 120.019 86.0608 120.019 87.1942C120.019 88.3275 119.617 89.2625 118.812 89.9992C118.007 90.7358 116.936 91.1042 115.599 91.1042H112.114V95.1842H110.584ZM112.114 89.6592H115.599C116.517 89.6592 117.225 89.4382 117.724 88.9962C118.234 88.5428 118.489 87.9422 118.489 87.1942C118.489 86.4462 118.234 85.8512 117.724 85.4092C117.225 84.9558 116.517 84.7292 115.599 84.7292H112.114V89.6592Z" fill="#41AE7C"/>
<path d="M81.0898 76.8599H125.55" stroke="#41AE7C" stroke-miterlimit="10"/>
<path d="M421.29 115.56H335.25V169.92H421.29" fill="#41AE7C"/>
<path d="M421.29 115.56H335.25V125.91H421.29V115.56Z" fill="#41AE7C"/>
<g opacity="0.2">
<path opacity="0.2" d="M421.29 115.56H335.25V125.91H421.29V115.56Z" fill="black"/>
</g>
<path d="M344.97 120.87C344.97 122.31 343.8 123.48 342.36 123.48C340.92 123.48 339.75 122.31 339.75 120.87C339.75 119.43 340.92 118.26 342.36 118.26C343.8 118.26 344.97 119.43 344.97 120.87Z" fill="#E0E0E0"/>
<path d="M355.681 120.87C355.681 122.31 354.511 123.48 353.071 123.48C351.631 123.48 350.461 122.31 350.461 120.87C350.461 119.43 351.631 118.26 353.071 118.26C354.511 118.26 355.681 119.43 355.681 120.87Z" fill="#F0F0F0"/>
<path d="M366.298 120.87C366.298 122.31 365.128 123.48 363.688 123.48C362.248 123.48 361.078 122.31 361.078 120.87C361.078 119.43 362.248 118.26 363.688 118.26C365.128 118.26 366.298 119.43 366.298 120.87Z" fill="#FAFAFA"/>
<path d="M353.756 154.906C351.421 152.526 350.254 149.512 350.254 145.862C350.254 142.213 351.421 139.21 353.756 136.852C356.113 134.472 359.083 133.282 362.664 133.282C366.676 133.282 369.838 134.733 372.15 137.634C373.17 138.881 373.918 140.32 374.394 141.952H371.334C370.858 140.819 370.257 139.856 369.532 139.062C367.741 137.136 365.452 136.172 362.664 136.172C359.921 136.172 357.677 137.068 355.932 138.858C354.187 140.649 353.314 142.984 353.314 145.862C353.314 148.741 354.187 151.076 355.932 152.866C357.677 154.657 359.921 155.552 362.664 155.552C365.497 155.552 367.843 154.51 369.702 152.424C370.45 151.563 371.051 150.509 371.504 149.262H374.564C374.02 151.03 373.227 152.56 372.184 153.852C369.804 156.912 366.631 158.442 362.664 158.442C359.083 158.442 356.113 157.264 353.756 154.906Z" fill="#FAFAFA"/>
<path d="M377.787 148.582V146.032H383.227V140.422H385.947V146.032H391.387V148.582H385.947V154.192H383.227V148.582H377.787Z" fill="#FAFAFA"/>
<path d="M395.119 148.582V146.032H400.559V140.422H403.279V146.032H408.719V148.582H403.279V154.192H400.559V148.582H395.119Z" fill="#FAFAFA"/>
<path d="M109.889 152.73H38.6094V197.73H109.799" fill="#41AE7C"/>
<path d="M109.799 152.73H38.6094V161.28H109.799V152.73Z" fill="#41AE7C"/>
<g opacity="0.2">
<path opacity="0.2" d="M109.799 152.73H38.6094V161.28H109.799V152.73Z" fill="black"/>
</g>
<path d="M46.7106 157.05C46.7106 158.22 45.7206 159.21 44.5506 159.21C43.3806 159.21 42.3906 158.22 42.3906 157.05C42.3906 155.88 43.3806 154.89 44.5506 154.89C45.7206 154.89 46.7106 155.88 46.7106 157.05Z" fill="#E0E0E0"/>
<path d="M55.5309 157.05C55.5309 158.22 54.5409 159.21 53.3709 159.21C52.2009 159.21 51.2109 158.22 51.2109 157.05C51.2109 155.88 52.2009 154.89 53.3709 154.89C54.5409 154.89 55.5309 155.88 55.5309 157.05Z" fill="#F0F0F0"/>
<path d="M64.3513 157.05C64.3513 158.22 63.3613 159.21 62.1913 159.21C61.0213 159.21 60.0312 158.22 60.0312 157.05C60.0312 155.88 61.0213 154.89 62.1913 154.89C63.3613 154.89 64.3513 155.88 64.3513 157.05Z" fill="#FAFAFA"/>
<path d="M48.841 186.1C46.9184 184.14 45.957 181.657 45.957 178.652C45.957 175.647 46.9184 173.173 48.841 171.232C50.7824 169.272 53.2277 168.292 56.177 168.292C59.481 168.292 62.085 169.487 63.989 171.876C64.829 172.903 65.445 174.088 65.837 175.432H63.317C62.925 174.499 62.4304 173.705 61.833 173.052C60.3584 171.465 58.473 170.672 56.177 170.672C53.9184 170.672 52.0704 171.409 50.633 172.884C49.1957 174.359 48.477 176.281 48.477 178.652C48.477 181.023 49.1957 182.945 50.633 184.42C52.0704 185.895 53.9184 186.632 56.177 186.632C58.5104 186.632 60.4424 185.773 61.973 184.056C62.589 183.347 63.0837 182.479 63.457 181.452H65.977C65.529 182.908 64.8757 184.168 64.017 185.232C62.057 187.752 59.4437 189.012 56.177 189.012C53.2277 189.012 50.7824 188.041 48.841 186.1Z" fill="#FAFAFA"/>
<path d="M68.2116 182.852H70.7316C70.9369 183.561 71.2729 184.196 71.7396 184.756C72.7849 186.007 74.3156 186.632 76.3316 186.632C77.9369 186.632 79.1502 186.315 79.9716 185.68C80.8116 185.045 81.2316 184.243 81.2316 183.272C81.2316 182.451 80.8956 181.797 80.2236 181.312C79.5516 180.827 78.5996 180.407 77.3676 180.052C77.1436 179.977 76.7796 179.875 76.2756 179.744C75.7902 179.613 75.4076 179.511 75.1276 179.436C74.8476 179.361 74.4742 179.249 74.0076 179.1C73.5409 178.951 73.1676 178.82 72.8876 178.708C72.6076 178.577 72.2716 178.419 71.8796 178.232C71.4876 178.027 71.1702 177.831 70.9276 177.644C70.7036 177.457 70.4516 177.233 70.1716 176.972C69.9102 176.692 69.7049 176.403 69.5556 176.104C69.4249 175.805 69.3036 175.469 69.1916 175.096C69.0982 174.723 69.0516 174.321 69.0516 173.892C69.0516 172.361 69.6956 171.045 70.9836 169.944C72.2716 168.843 73.9609 168.292 76.0516 168.292C78.8142 168.292 80.9049 169.207 82.3236 171.036C82.9209 171.839 83.3502 172.744 83.6116 173.752H81.0916C80.9236 173.229 80.6249 172.716 80.1956 172.212C79.1689 171.185 77.7876 170.672 76.0516 170.672C74.6516 170.672 73.5502 170.989 72.7476 171.624C71.9636 172.24 71.5716 172.996 71.5716 173.892C71.5716 174.321 71.6929 174.713 71.9356 175.068C72.1782 175.423 72.4676 175.721 72.8036 175.964C73.1396 176.188 73.6062 176.421 74.2036 176.664C74.8196 176.888 75.3609 177.065 75.8276 177.196C76.2942 177.327 76.9102 177.485 77.6756 177.672C78.5342 177.896 79.2902 178.148 79.9436 178.428C80.5969 178.708 81.2316 179.063 81.8476 179.492C82.4636 179.921 82.9302 180.453 83.2476 181.088C83.5836 181.723 83.7516 182.451 83.7516 183.272C83.7516 184.877 83.0889 186.24 81.7636 187.36C80.4382 188.461 78.6276 189.012 76.3316 189.012C73.3262 189.012 71.0769 187.985 69.5836 185.932C68.9302 185.055 68.4729 184.028 68.2116 182.852Z" fill="#FAFAFA"/>
<path d="M86.1217 182.852H88.6417C88.8471 183.561 89.1831 184.196 89.6497 184.756C90.6951 186.007 92.2257 186.632 94.2417 186.632C95.8471 186.632 97.0604 186.315 97.8817 185.68C98.7217 185.045 99.1417 184.243 99.1417 183.272C99.1417 182.451 98.8057 181.797 98.1337 181.312C97.4617 180.827 96.5097 180.407 95.2777 180.052C95.0537 179.977 94.6897 179.875 94.1857 179.744C93.7004 179.613 93.3177 179.511 93.0377 179.436C92.7577 179.361 92.3844 179.249 91.9177 179.1C91.4511 178.951 91.0777 178.82 90.7977 178.708C90.5177 178.577 90.1817 178.419 89.7897 178.232C89.3977 178.027 89.0804 177.831 88.8377 177.644C88.6137 177.457 88.3617 177.233 88.0817 176.972C87.8204 176.692 87.6151 176.403 87.4657 176.104C87.3351 175.805 87.2137 175.469 87.1017 175.096C87.0084 174.723 86.9617 174.321 86.9617 173.892C86.9617 172.361 87.6057 171.045 88.8937 169.944C90.1817 168.843 91.8711 168.292 93.9617 168.292C96.7244 168.292 98.8151 169.207 100.234 171.036C100.831 171.839 101.26 172.744 101.522 173.752H99.0017C98.8337 173.229 98.5351 172.716 98.1057 172.212C97.0791 171.185 95.6977 170.672 93.9617 170.672C92.5617 170.672 91.4604 170.989 90.6577 171.624C89.8737 172.24 89.4817 172.996 89.4817 173.892C89.4817 174.321 89.6031 174.713 89.8457 175.068C90.0884 175.423 90.3777 175.721 90.7137 175.964C91.0497 176.188 91.5164 176.421 92.1137 176.664C92.7297 176.888 93.2711 177.065 93.7377 177.196C94.2044 177.327 94.8204 177.485 95.5857 177.672C96.4444 177.896 97.2004 178.148 97.8537 178.428C98.5071 178.708 99.1417 179.063 99.7577 179.492C100.374 179.921 100.84 180.453 101.158 181.088C101.494 181.723 101.662 182.451 101.662 183.272C101.662 184.877 100.999 186.24 99.6737 187.36C98.3484 188.461 96.5377 189.012 94.2417 189.012C91.2364 189.012 88.9871 187.985 87.4937 185.932C86.8404 185.055 86.3831 184.028 86.1217 182.852Z" fill="#FAFAFA"/>
<path d="M25.9219 366.48H424.082" stroke="black" stroke-miterlimit="10"/>
<path d="M178.022 240.93C176.222 238.05 175.052 232.47 175.592 227.07C176.222 221.67 176.402 213.48 169.562 213.12C162.812 212.76 160.472 226.35 160.112 229.32C159.752 232.2 147.602 234 137.972 231.03C128.252 228.06 110.252 224.55 102.332 226.53C94.4118 228.51 97.2918 235.44 97.2918 235.44C91.8018 239.31 97.8318 244.17 97.8318 244.17C92.2518 249.21 98.4618 254.52 102.422 255.06C102.332 255.6 102.242 256.05 102.422 256.68C103.502 262.53 127.712 260.37 141.482 266.49C155.342 272.61 164.882 298.44 164.882 298.44L193.772 263.79C193.772 263.79 179.822 243.81 178.022 240.93Z" fill="white"/>
<path d="M131.132 241.56C131.132 241.56 103.502 239.13 97.9222 244.26C92.3422 249.3 98.5522 254.61 102.512 255.15" stroke="black" stroke-miterlimit="10"/>
<path d="M131.13 235.44C131.13 235.44 110.25 229.86 99.9004 234.09C90.2704 238.05 97.9204 244.17 97.9204 244.17" stroke="black" stroke-miterlimit="10"/>
<path d="M97.3822 235.44C97.3822 235.44 94.4122 228.51 102.422 226.53C110.342 224.55 128.432 227.97 138.152 231.03C147.872 234 159.932 232.29 160.292 229.32C160.652 226.44 162.992 212.76 169.742 213.12C176.492 213.48 176.312 221.67 175.772 227.07C175.142 232.47 176.402 238.05 178.202 240.93C180.002 243.81 193.952 263.79 193.952 263.79L165.062 298.44C165.062 298.44 155.522 272.61 141.662 266.49C127.802 260.37 103.592 262.53 102.602 256.68C101.522 250.83 112.142 248.13 128.432 250.02" stroke="black" stroke-miterlimit="10"/>
<path d="M153.453 286.2L196.923 261.09C196.923 261.09 234.633 329.13 283.233 346.68L225.363 368.55L178.923 365.58C178.923 365.58 160.473 326.7 153.453 286.2Z" fill="#41AE7C"/>
<g opacity="0.3">
<path opacity="0.3" d="M153.453 286.2L196.923 261.09C196.923 261.09 234.633 329.13 283.233 346.68L225.363 368.55L178.923 365.58C178.923 365.58 160.473 326.7 153.453 286.2Z" fill="white"/>
</g>
<path d="M282.783 346.589C282.513 346.499 282.153 346.319 281.883 346.229V347.219L282.783 346.859V346.589Z" fill="#FAFAFA"/>
<path d="M263.972 340.11V354.06L264.872 353.7V340.11H269.102C268.562 339.84 268.112 339.48 267.572 339.21H264.962V337.59C264.692 337.41 264.332 337.23 264.062 337.05V339.3H246.962V324C246.692 323.73 246.332 323.46 246.062 323.19V339.3H228.962V321.3H244.082C243.722 321.03 243.452 320.67 243.092 320.4H228.962V305.73C228.692 305.37 228.332 305.01 228.062 304.74V320.4H210.962V302.49H226.172C225.902 302.22 225.632 301.86 225.452 301.59H211.052V283.68H211.592C211.052 282.96 210.602 282.24 210.152 281.61V282.78H193.052V264.87H199.262C199.082 264.51 198.902 264.24 198.722 263.97H193.052V263.43L190.622 264.87H192.152V282.78H175.052V273.78L174.152 274.32V282.78H159.482L157.952 283.68H174.152V301.59H157.052V284.22L156.152 284.76V299.34C156.422 300.6 156.782 301.86 157.052 303.12V302.49H174.152V320.4H161.822C161.912 320.67 162.002 321.03 162.092 321.3H174.152V339.21H168.212C168.302 339.48 168.392 339.84 168.572 340.11H174.242V354.6C174.512 355.32 174.872 356.04 175.142 356.76V340.11H192.242V358.02H175.502C175.592 358.29 175.772 358.65 175.862 358.92H191.972V366.48L192.872 366.57V358.92H209.972V367.65L210.872 367.74V359.01H227.972V367.74L228.872 367.38V359.01H245.972V360.9L246.872 360.54V359.01H251.012L253.352 358.11H246.782V340.2H263.972V340.11ZM192.062 339.21H174.962V321.3H192.062V339.21ZM192.062 320.4H174.962V302.49H192.062V320.4ZM192.062 301.59H174.962V283.68H192.062V301.59ZM210.062 358.02H192.962V340.11H210.062V358.02ZM210.062 339.21H192.962V321.3H210.062V339.21ZM210.062 320.4H192.962V302.49H210.062V320.4ZM210.062 301.59H192.962V283.68H210.062V301.59ZM227.972 358.02H210.872V340.11H227.972V358.02ZM227.972 339.21H210.872V321.3H227.972V339.21ZM245.972 358.02H228.872V340.11H245.972V358.02Z" fill="#FAFAFA"/>
<path d="M153.453 286.2L196.923 261.09C196.923 261.09 234.633 329.13 283.233 346.68L225.363 368.55L178.923 365.58C178.923 365.58 160.473 326.7 153.453 286.2Z" stroke="black" stroke-miterlimit="10"/>
<path d="M157.32 303.66L206.82 277.56" stroke="black" stroke-miterlimit="10"/>
<path d="M198.724 273.51C198.724 275.58 197.104 277.2 195.034 277.2C192.964 277.2 191.344 275.58 191.344 273.51C191.344 271.44 192.964 269.82 195.034 269.82C197.014 269.82 198.724 271.44 198.724 273.51Z" fill="black"/>
<path d="M337.503 300.96C337.503 300.96 349.113 331.56 306.543 342.36C263.973 353.16 213.843 351.27 213.843 351.27C213.843 351.27 208.713 351.36 209.073 337.95C209.343 324.63 208.803 298.26 225.903 269.1C243.093 239.94 253.713 229.32 262.443 225.99C265.503 224.82 286.473 223.11 298.083 229.77C319.773 242.46 336.513 272.07 337.503 300.96Z" fill="#41AE7C"/>
<g opacity="0.3">
<path opacity="0.3" d="M337.503 300.96C337.503 300.96 349.113 331.56 306.543 342.36C263.973 353.16 213.843 351.27 213.843 351.27C213.843 351.27 208.713 351.36 209.073 337.95C209.343 324.63 208.803 298.26 225.903 269.1C243.093 239.94 253.713 229.32 262.443 225.99C265.503 224.82 286.473 223.11 298.083 229.77C319.773 242.46 336.513 272.07 337.503 300.96Z" fill="white"/>
</g>
<path d="M324.184 317.7H337.954C338.044 317.43 338.134 317.07 338.224 316.8H324.274V298.89H337.504C337.504 298.62 337.504 298.26 337.414 297.99H324.274V280.08H334.264C334.174 279.81 334.084 279.45 333.994 279.18H324.274V261.27H326.704C326.524 261 326.344 260.64 326.254 260.37H324.364V256.95C324.094 256.5 323.734 255.96 323.464 255.51V260.37H306.364V242.46H313.564C313.294 242.19 313.024 241.83 312.754 241.56H306.454V235.62C306.184 235.35 305.824 235.17 305.554 234.9V241.56H288.454V226.35C288.184 226.26 287.824 226.26 287.554 226.17V241.56H270.454V225.09C270.184 225.09 269.824 225.09 269.554 225.18V241.65H252.454V232.83C252.184 233.1 251.824 233.37 251.554 233.64V241.56H244.444C244.174 241.83 243.994 242.19 243.724 242.46H251.554V260.37H234.454V255.51C234.184 255.96 233.824 256.41 233.554 256.86V260.37H231.304C231.124 260.64 230.944 261 230.764 261.27H233.554V279.18H220.774C220.594 279.45 220.504 279.81 220.324 280.08H233.554V297.99H216.454V289.53C216.184 290.43 215.824 291.24 215.554 292.14V297.99H213.754C213.664 298.26 213.574 298.62 213.484 298.89H215.464V316.8H210.154C210.154 317.07 210.064 317.43 210.064 317.7H215.554V335.61H209.164C209.164 335.88 209.164 336.24 209.164 336.51H215.554V351.36C215.824 351.36 216.094 351.36 216.454 351.36V336.51H233.554V351.27C233.824 351.27 234.184 351.27 234.454 351.27V336.51H251.554V350.46C251.824 350.46 252.184 350.46 252.454 350.37V336.42H269.554V348.84C269.824 348.84 270.184 348.75 270.454 348.75V336.42H287.554V346.32C287.824 346.23 288.184 346.23 288.454 346.14V336.42H305.554V342.63C305.824 342.54 306.184 342.45 306.454 342.45V336.51H322.204C323.014 336.06 323.734 335.61 324.454 335.16V317.7H324.184ZM233.464 335.61H216.364V317.7H233.464V335.61ZM233.464 316.8H216.364V298.89H233.464V316.8ZM251.464 335.61H234.364V317.7H251.464V335.61ZM251.464 316.8H234.364V298.89H251.464V316.8ZM251.464 297.99H234.364V280.08H251.464V297.99ZM251.464 279.18H234.364V261.27H251.464V279.18ZM269.374 335.61H252.274V317.7H269.374V335.61ZM269.374 316.8H252.274V298.89H269.374V316.8ZM269.374 297.99H252.274V280.08H269.374V297.99ZM269.374 279.18H252.274V261.27H269.374V279.18ZM269.374 260.37H252.274V242.46H269.374V260.37ZM287.374 335.61H270.274V317.7H287.374V335.61ZM287.374 316.8H270.274V298.89H287.374V316.8ZM287.374 297.99H270.274V280.08H287.374V297.99ZM287.374 279.18H270.274V261.27H287.374V279.18ZM287.374 260.37H270.274V242.46H287.374V260.37ZM305.374 335.61H288.274V317.7H305.374V335.61ZM305.374 316.8H288.274V298.89H305.374V316.8ZM305.374 297.99H288.274V280.08H305.374V297.99ZM305.374 279.18H288.274V261.27H305.374V279.18ZM305.374 260.37H288.274V242.46H305.374V260.37ZM323.284 335.61H306.184V317.7H323.284V335.61ZM323.284 316.8H306.184V298.89H323.284V316.8ZM323.284 297.99H306.184V280.08H323.284V297.99ZM323.284 279.18H306.184V261.27H323.284V279.18Z" fill="#FAFAFA"/>
<path d="M259.294 226.08C259.294 226.08 200.704 275.76 210.064 349.29" stroke="black" stroke-miterlimit="10"/>
<path d="M299.522 332.82L302.852 379.35L247.412 373.77C247.412 373.77 242.012 372.15 237.872 376.29C233.642 380.43 233.732 382.68 233.372 384.03C233.012 385.47 231.842 390.69 229.322 393.48C226.892 396.27 224.822 396.18 223.022 394.38C221.222 392.58 221.222 392.58 221.222 392.58C221.222 392.58 220.502 392.22 219.602 393.12C218.702 394.02 216.182 395.1 214.832 393.3C213.482 391.41 213.392 391.68 213.392 391.68C213.392 391.68 212.942 390.87 212.222 391.68C211.412 392.4 208.082 393.75 206.372 391.68C204.662 389.61 203.942 388.17 203.942 388.17C203.942 388.17 203.402 387.99 202.412 388.44C201.332 388.89 197.102 389.88 194.762 384.84C192.422 379.8 193.862 372.15 194.762 367.11C195.662 362.07 199.982 351.18 203.942 346.77C207.812 342.36 215.192 337.23 222.932 335.97C230.672 334.71 252.092 333.81 261.182 333.63C270.272 333.45 299.522 332.82 299.522 332.82Z" fill="white"/>
<path d="M229.322 360.18C229.322 360.18 221.222 374.49 219.692 382.41C218.252 390.33 222.662 395.91 225.272 395.73C227.882 395.55 231.482 392.94 233.102 385.29C234.722 377.64 239.852 373.77 243.722 373.68C247.502 373.59 305.822 379.8 305.822 379.8" stroke="black" stroke-miterlimit="10"/>
<path d="M219.152 358.29C219.152 358.29 212.402 373.68 211.772 381.69C211.142 389.7 214.742 394.2 216.542 394.38C218.342 394.65 220.952 392.04 220.952 392.04" stroke="black" stroke-miterlimit="10"/>
<path d="M210.244 352.62C210.244 352.62 202.954 367.11 202.504 375.48C202.054 383.85 203.674 389.79 206.914 391.95C210.154 394.11 213.304 390.96 213.304 390.96" stroke="black" stroke-miterlimit="10"/>
<path d="M301.054 332.82C301.054 332.82 245.614 333.27 227.704 335.16C209.794 337.05 202.054 346.86 198.004 356.85C193.954 366.84 192.604 379.98 194.944 384.48C198.994 392.22 203.674 387.63 203.674 387.63" stroke="black" stroke-miterlimit="10"/>
<path d="M305.463 269.82C305.463 269.82 336.603 297.18 332.283 314.91C327.963 332.64 256.773 330.93 256.773 330.93V381.33C256.773 381.33 288.003 380.61 314.733 384.12C346.053 388.26 395.283 376.65 400.233 339.57C405.183 302.49 374.853 235.44 292.593 224.28L305.463 269.82Z" fill="#41AE7C"/>
<g opacity="0.3">
<path opacity="0.3" d="M305.463 269.82C305.463 269.82 336.603 297.18 332.283 314.91C327.963 332.64 256.773 330.93 256.773 330.93V381.33C256.773 381.33 288.003 380.61 314.733 384.12C346.053 388.26 395.283 376.65 400.233 339.57C405.183 302.49 374.853 235.44 292.593 224.28L305.463 269.82Z" fill="white"/>
</g>
<path d="M396.094 335.61V317.7H399.424C399.334 317.43 399.334 317.07 399.244 316.8H396.094V304.47C395.824 303.57 395.464 302.76 395.194 301.86V316.8H378.094V298.89H394.114C394.024 298.62 393.844 298.26 393.754 297.99H378.094V280.08H384.484C384.304 279.81 384.124 279.45 383.944 279.18H378.094V270.9C377.824 270.54 377.464 270.09 377.194 269.73V279.09H360.094V261.18H369.634C369.364 260.91 369.004 260.55 368.734 260.28H360.094V252.36C359.824 252.09 359.464 251.91 359.194 251.64V260.28H342.094V242.37H345.874C345.334 242.1 344.884 241.74 344.344 241.47H342.094V240.3C341.824 240.12 341.464 239.94 341.194 239.85V241.65H324.094V232.11C323.824 232.02 323.464 231.93 323.194 231.75V241.65H306.094V226.8C305.824 226.71 305.464 226.71 305.194 226.62V241.65H297.274L297.544 242.55H305.194V260.46H302.584L302.854 261.36H305.194V269.55L305.284 269.82C305.284 269.82 305.554 270.09 306.094 270.54V261.27H323.194V279.18H314.734C315.004 279.45 315.274 279.81 315.544 280.08H323.104V289.35C323.374 289.8 323.734 290.16 324.004 290.61V280.08H341.104V297.99H328.594C328.774 298.26 328.864 298.62 329.044 298.89H341.104V316.8H331.294C331.114 317.07 330.934 317.43 330.664 317.7H341.104V335.61H324.004V322.65C323.734 322.83 323.374 322.92 323.104 323.1V335.7H306.004V327.78C305.734 327.87 305.374 327.87 305.104 327.96V335.7H288.004V330.03C287.734 330.03 287.374 330.12 287.104 330.12V335.79H270.004V331.02C269.734 331.02 269.374 331.02 269.104 331.02V335.79H256.414V336.69H269.104V354.6H256.414V355.5H269.104V373.41H256.414V374.31H269.104V381.42C269.374 381.42 269.734 381.42 270.004 381.42V374.31H287.104V381.87C287.374 381.87 287.734 381.87 288.004 381.87V374.22H305.104V383.13C305.374 383.13 305.734 383.22 306.004 383.22V374.22H323.104V384.84C323.374 384.84 323.734 384.84 324.004 384.84V374.13H341.104V383.94C341.374 383.94 341.734 383.85 342.004 383.85V374.13H359.104V380.16C359.374 380.07 359.734 379.98 360.004 379.89V374.22H373.684C374.224 373.95 374.764 373.59 375.304 373.32H360.004V355.41H377.104V372.33C377.374 372.15 377.734 371.97 378.004 371.79V355.41H394.564C395.104 354.6 395.554 353.7 396.004 352.89V336.6H400.414C400.414 336.33 400.504 335.97 400.504 335.7H396.094V335.61ZM323.284 260.37H306.184V242.46H323.284V260.37ZM287.374 373.23H270.274V355.32H287.374V373.23ZM287.374 354.42H270.274V336.51H287.374V354.42ZM305.374 373.23H288.274V355.32H305.374V373.23ZM305.374 354.42H288.274V336.51H305.374V354.42ZM323.284 373.23H306.184V355.32H323.284V373.23ZM323.284 354.42H306.184V336.51H323.284V354.42ZM341.284 373.23H324.184V355.32H341.284V373.23ZM341.284 354.42H324.184V336.51H341.284V354.42ZM341.284 279.18H324.184V261.27H341.284V279.18ZM341.284 260.37H324.184V242.46H341.284V260.37ZM359.284 373.23H342.184V355.32H359.284V373.23ZM359.284 354.42H342.184V336.51H359.284V354.42ZM359.284 335.61H342.184V317.7H359.284V335.61ZM359.284 316.8H342.184V298.89H359.284V316.8ZM359.284 297.99H342.184V280.08H359.284V297.99ZM359.284 279.18H342.184V261.27H359.284V279.18ZM377.194 354.42H360.094V336.51H377.194V354.42ZM377.194 335.61H360.094V317.7H377.194V335.61ZM377.194 316.8H360.094V298.89H377.194V316.8ZM377.194 297.99H360.094V280.08H377.194V297.99ZM395.194 354.42H378.094V336.51H395.194V354.42ZM395.194 335.61H378.094V317.7H395.194V335.61Z" fill="#FAFAFA"/>
<path d="M305.463 269.82C305.463 269.82 336.603 297.18 332.283 314.91C327.963 332.64 256.773 330.93 256.773 330.93V381.33C256.773 381.33 288.003 380.61 314.733 384.12C346.053 388.26 395.283 376.65 400.233 339.57C405.183 302.49 374.853 235.44 292.593 224.28" stroke="black" stroke-miterlimit="10"/>
<path d="M269.825 371.7C269.825 373.77 268.205 375.39 266.135 375.39C264.065 375.39 262.445 373.77 262.445 371.7C262.445 369.63 264.065 368.01 266.135 368.01C268.205 368.01 269.825 369.63 269.825 371.7Z" fill="black"/>
<path d="M274.863 330.66V381.24" stroke="black" stroke-miterlimit="10"/>
<path d="M303.303 183.15C303.303 189.09 298.443 193.86 292.503 193.86C286.563 193.86 281.703 189.09 281.703 183.15C281.703 177.21 286.563 172.44 292.503 172.44C298.443 172.44 303.303 177.21 303.303 183.15Z" stroke="black" stroke-width="2" stroke-miterlimit="10"/>
<path d="M256.322 149.94H269.822C278.822 149.94 286.202 158.31 286.202 168.57V189.54C286.202 190.17 286.202 190.71 286.112 191.25C286.292 191.88 286.382 192.51 286.382 193.14V205.92V206.64V219.42C286.382 224.1 282.602 227.88 277.922 227.88H272.522C267.842 227.88 264.062 224.1 264.062 219.42V208.08H256.232C247.232 208.08 239.852 199.71 239.852 189.45V168.48C239.942 158.31 247.322 149.94 256.322 149.94Z" fill="white" stroke="black" stroke-miterlimit="10"/>
<path d="M282.692 182.79L280.172 166.32C280.172 166.32 234.722 171.99 219.962 149.94C205.202 127.89 220.682 119.07 228.242 120.33C235.712 121.59 244.532 132.3 244.532 132.3C244.532 132.3 237.512 122.76 244.532 121.32C251.552 119.79 259.202 127.08 263.252 134.55C263.252 134.55 293.222 131.76 303.392 149.94C313.562 168.12 305.282 180.99 286.742 199.71L285.482 189.27L282.692 182.79Z" fill="black"/>
<path d="M264.603 175.14C264.603 176.67 263.343 177.93 261.813 177.93C260.283 177.93 259.023 176.67 259.023 175.14C259.023 173.61 260.283 172.35 261.813 172.35C263.343 172.35 264.603 173.61 264.603 175.14Z" fill="black"/>
<path d="M246.512 174.78C246.512 176.04 245.432 177.12 244.172 177.12C242.912 177.12 241.832 176.04 241.832 174.78C241.832 173.52 242.912 172.44 244.172 172.44C245.432 172.35 246.512 173.43 246.512 174.78Z" fill="black"/>
<path d="M249.121 186.029C249.121 186.029 250.471 190.079 253.441 190.349C256.411 190.619 258.661 187.379 258.841 184.859L249.121 186.029Z" fill="white"/>
<path d="M248.852 186.119C249.302 187.469 250.202 188.909 251.372 189.809C253.442 191.429 256.052 190.619 257.582 188.729C258.482 187.649 259.022 186.299 259.202 184.859C259.202 184.679 259.022 184.499 258.932 184.589C256.052 184.949 253.262 185.309 250.382 185.669C250.022 185.759 249.572 185.759 249.212 185.849C248.852 185.939 248.852 186.479 249.212 186.479C252.092 186.119 254.882 185.759 257.762 185.399C258.122 185.309 258.572 185.309 258.932 185.219C258.842 185.129 258.752 185.039 258.662 184.949C258.482 187.109 256.952 189.539 254.792 190.079C252.722 190.619 251.102 189.089 250.202 187.469C249.932 187.019 249.752 186.569 249.572 186.119C249.302 185.579 248.672 185.759 248.852 186.119Z" fill="black"/>
<path d="M275.854 173.52C275.854 179.46 271.534 184.32 266.224 184.32C260.914 184.32 256.594 179.46 256.594 173.52C256.594 167.58 260.914 162.72 266.224 162.72C271.534 162.72 275.854 167.58 275.854 173.52Z" stroke="#4D5A64" stroke-miterlimit="10"/>
<path d="M250.024 172.17C250.024 177.48 246.424 181.8 242.104 181.8C237.694 181.8 234.184 177.48 234.184 172.17C234.184 166.86 237.784 162.54 242.104 162.54C246.514 162.54 250.024 166.86 250.024 172.17Z" stroke="#4D5A64" stroke-miterlimit="10"/>
<path d="M249.844 175.049C249.844 175.049 253.984 173.519 256.774 175.859" stroke="#4D5A64" stroke-miterlimit="10"/>
<path d="M275.762 173.88L288.902 176.67" stroke="#4D5A64" stroke-miterlimit="10"/>
<path d="M303.303 183.15C303.303 189.09 298.443 193.86 292.503 193.86C286.563 193.86 281.703 189.09 281.703 183.15C281.703 177.21 286.563 172.44 292.503 172.44C298.443 172.44 303.303 177.21 303.303 183.15Z" fill="white"/>
<path d="M287.104 184.5C286.924 182.34 287.914 179.82 289.984 178.83C291.154 178.29 292.414 178.29 293.674 178.38C294.124 178.47 294.124 177.66 293.674 177.66C291.514 177.48 289.264 177.84 287.824 179.55C286.924 180.63 286.474 182.07 286.384 183.51C286.384 183.78 286.294 184.14 286.384 184.5C286.384 185.04 287.104 185.04 287.104 184.5Z" fill="black"/>
<path d="M295.47 232.47H256.68C255.24 232.47 254.16 231.3 254.16 229.95V223.29C254.16 221.85 255.33 220.77 256.68 220.77H295.47C296.91 220.77 297.99 221.94 297.99 223.29V229.95C297.99 231.3 296.91 232.47 295.47 232.47Z" fill="#41AE7C"/>
<path opacity="0.3" d="M295.47 232.47H256.68C255.24 232.47 254.16 231.3 254.16 229.95V223.29C254.16 221.85 255.33 220.77 256.68 220.77H295.47C296.91 220.77 297.99 221.94 297.99 223.29V229.95C297.99 231.3 296.91 232.47 295.47 232.47Z" fill="white"/>
<path d="M263.16 226.35C263.16 227.52 262.26 228.42 261.09 228.42C259.92 228.42 259.02 227.52 259.02 226.35C259.02 225.18 259.92 224.28 261.09 224.28C262.26 224.28 263.16 225.18 263.16 226.35Z" fill="black"/>
<path d="M288.271 232.47V223.65H297.991V223.2C297.991 223.02 297.991 222.84 297.901 222.75H288.181V220.68H287.281V222.75H270.181V220.68H269.281V222.75H253.981C253.981 222.93 253.891 223.02 253.891 223.2V223.65H269.191V232.47H270.091V223.65H287.191V232.47H288.271Z" fill="#FAFAFA"/>
<path d="M295.47 232.47H256.68C255.24 232.47 254.16 231.3 254.16 229.95V223.29C254.16 221.85 255.33 220.77 256.68 220.77H295.47C296.91 220.77 297.99 221.94 297.99 223.29V229.95C297.99 231.3 296.91 232.47 295.47 232.47Z" stroke="black" stroke-miterlimit="10"/>
<path d="M386.732 353.52C377.642 353.52 370.262 360.9 370.262 369.99C370.262 379.08 377.642 386.46 386.732 386.46C395.822 386.46 403.202 379.08 403.202 369.99C403.202 360.9 395.822 353.52 386.732 353.52ZM386.732 380.52C380.972 380.52 376.292 375.84 376.292 370.08C376.292 364.32 380.972 359.64 386.732 359.64C392.492 359.64 397.172 364.32 397.172 370.08C397.082 375.84 392.492 380.52 386.732 380.52Z" fill="white" stroke="black" stroke-miterlimit="10"/>
<path d="M382.14 396.54H347.22C344.34 396.54 341.91 394.2 341.91 391.23V349.38C341.91 346.5 344.25 344.07 347.22 344.07H382.14C385.02 344.07 387.45 346.41 387.45 349.38V391.23C387.36 394.2 385.02 396.54 382.14 396.54Z" fill="white" stroke="black" stroke-miterlimit="10"/>
<path d="M89.1896 396.9L184.5 397.08C194.4 397.08 199.53 389.43 195.93 379.89L171 313.74C167.4 304.29 156.51 296.55 146.61 296.55L51.2996 296.37C41.3996 296.37 36.2696 304.02 39.8696 313.56L64.7996 379.62C68.3996 389.16 79.3796 396.9 89.1896 396.9Z" fill="black"/>
<path d="M103.59 341.46C104.67 345.69 108.99 349.11 113.22 349.11C117.45 349.11 119.88 345.69 118.8 341.55C117.72 337.32 113.4 333.9 109.17 333.9C105.03 333.81 102.51 337.23 103.59 341.46Z" fill="white"/>
<path d="M155.34 396.99L251.37 397.17C252.63 397.17 253.62 396.18 253.62 394.92V385.2C253.62 383.94 252.63 382.95 251.37 382.95L155.34 382.77C154.08 382.77 153.09 383.76 153.09 385.02V394.74C153.09 396 154.08 396.99 155.34 396.99Z" fill="black"/>
</svg>
